8/1/2015  16:58 >> Application_Name >> SyncManager.addDataSyncPolicy - ERROR
System.ArgumentException: Column 'spol_grosspremium' does not belong to table Table.
   at System.Data.DataRow.GetDataColumn(String columnName)
   at System.Data.DataRow.get_Item(String columnName)
   at SyncManager.addDataSyncPolicy(DataSet dsData, String strLogin) in d:\WebApps\InstallmentPayment\App_Code\BL\SyncManager.cs:line 104

8/1/2015  16:58 >> Application_Name >> SyncManager.addDataSyncPolicy - SQL
INSERT INTO sync_policy ( spol_id, spol_type, spol_policy, spol_agentcode, spol_branch, spol_effectivefromdate      ,spol_effectivetodate, spol_grosspremium, spol_netpremium, spol_custpre, spol_custfirstname      ,spol_custlastname, spol_custaddr1, spol_custaddr2, spol_custzip, spol_custphoneno      ,spol_receivedate, spol_remark1, spol_remark2, spol_remark3, spol_remark4      ,spol_remark5, spol_compolicy, spol_comfirstname, spol_comlastname, spol_comlicense      ,spol_comchasis, spol_comgrosspremium, spol_comnetpremium, spol_settlementdate, spol_issuedate      ,spol_status, sync_id, sync_datetime, insert_date, insert_login)  VALUES (  '1501000000001',  'V',  '5810001063   ',  '100005  ',  '100',  '2/1/1472 12:00:00 AM',  '', 

8/1/2015  16:59 >> Application_Name >> SyncManager.addDataSyncPolicy - ERROR
System.ArgumentException: Column 'spol_grosspremium' does not belong to table Table.
   at System.Data.DataRow.GetDataColumn(String columnName)
   at System.Data.DataRow.get_Item(String columnName)
   at SyncManager.addDataSyncPolicy(DataSet dsData, String strLogin) in d:\WebApps\InstallmentPayment\App_Code\BL\SyncManager.cs:line 104

8/1/2015  16:59 >> Application_Name >> SyncManager.addDataSyncPolicy - SQL
INSERT INTO sync_policy ( spol_id, spol_type, spol_policy, spol_agentcode, spol_branch, spol_effectivefromdate      ,spol_effectivetodate, spol_grosspremium, spol_netpremium, spol_custpre, spol_custfirstname      ,spol_custlastname, spol_custaddr1, spol_custaddr2, spol_custzip, spol_custphoneno      ,spol_receivedate, spol_remark1, spol_remark2, spol_remark3, spol_remark4      ,spol_remark5, spol_compolicy, spol_comfirstname, spol_comlastname, spol_comlicense      ,spol_comchasis, spol_comgrosspremium, spol_comnetpremium, spol_settlementdate, spol_issuedate      ,spol_status, sync_id, sync_datetime, insert_date, insert_login)  VALUES (  '1501000000001',  'V',  '5810001063   ',  '100005  ',  '100',  '2/1/1472 12:00:00 AM',  '', 

8/1/2015  17:0 >> Application_Name >> SyncManager.addDataSyncPolicy - ERROR
System.ArgumentException: Column 'spol_comchasis' does not belong to table Table.
   at System.Data.DataRow.GetDataColumn(String columnName)
   at System.Data.DataRow.get_Item(String columnName)
   at SyncManager.addDataSyncPolicy(DataSet dsData, String strLogin) in d:\WebApps\InstallmentPayment\App_Code\BL\SyncManager.cs:line 123

8/1/2015  17:0 >> Application_Name >> SyncManager.addDataSyncPolicy - SQL
INSERT INTO sync_policy ( spol_id, spol_type, spol_policy, spol_agentcode, spol_branch, spol_effectivefromdate      ,spol_effectivetodate, spol_grosspremium, spol_netpremium, spol_custpre, spol_custfirstname      ,spol_custlastname, spol_custaddr1, spol_custaddr2, spol_custzip, spol_custphoneno      ,spol_receivedate, spol_remark1, spol_remark2, spol_remark3, spol_remark4      ,spol_remark5, spol_compolicy, spol_comfirstname, spol_comlastname, spol_comlicense      ,spol_comchasis, spol_comgrosspremium, spol_comnetpremium, spol_settlementdate, spol_issuedate      ,spol_status, sync_id, sync_datetime, insert_date, insert_login)  VALUES (  '1501000000001',  'V',  '5810001063   ',  '100005  ',  '100',  '2/1/1472 12:00:00 AM',  '',  '7220.36',  '6721.00',  '0 ',  'ศิริชัย                                                ',  'ลาภพณิชพูลผล                                           ',  '32/13  ม.2  ต.บางคูรัด                            ',  'อ.บางบัวทอง จ.นนทบุรี                             ',  '01/06/30',  '0898015242 0898015242                             ',  '12/1/1471 12:00:00 AM',  'ฌพ-8853 กท               ',  'MR053ZEE206112958        ',  '',  '',  '',  '580010000000041        ',  'ศิริชัย                                                ',  'ลาภพณิชพูลผล                                           ',  'ฌพ 8853                  ', 

8/1/2015  17:1 >> Application_Name >> SyncManager.addDataSyncPolicy - ERROR
System.ArgumentException: Column 'spol_settlementdate' does not belong to table Table.
   at System.Data.DataRow.GetDataColumn(String columnName)
   at System.Data.DataRow.get_Item(String columnName)
   at SyncManager.addDataSyncPolicy(DataSet dsData, String strLogin) in d:\WebApps\InstallmentPayment\App_Code\BL\SyncManager.cs:line 126

8/1/2015  17:1 >> Application_Name >> SyncManager.addDataSyncPolicy - SQL
INSERT INTO sync_policy ( spol_id, spol_type, spol_policy, spol_agentcode, spol_branch, spol_effectivefromdate      ,spol_effectivetodate, spol_grosspremium, spol_netpremium, spol_custpre, spol_custfirstname      ,spol_custlastname, spol_custaddr1, spol_custaddr2, spol_custzip, spol_custphoneno      ,spol_receivedate, spol_remark1, spol_remark2, spol_remark3, spol_remark4      ,spol_remark5, spol_compolicy, spol_comfirstname, spol_comlastname, spol_comlicense      ,spol_comchasis, spol_comgrosspremium, spol_comnetpremium, spol_settlementdate, spol_issuedate      ,spol_status, sync_id, sync_datetime, insert_date, insert_login)  VALUES (  '1501000000001',  'V',  '5810001063   ',  '100005  ',  '100',  '2/1/1472 12:00:00 AM',  '',  '7220.36',  '6721.00',  '0 ',  'ศิริชัย                                                ',  'ลาภพณิชพูลผล                                           ',  '32/13  ม.2  ต.บางคูรัด                            ',  'อ.บางบัวทอง จ.นนทบุรี                             ',  '01/06/30',  '0898015242 0898015242                             ',  '12/1/1471 12:00:00 AM',  'ฌพ-8853 กท               ',  'MR053ZEE206112958        ',  '',  '',  '',  '580010000000041        ',  'ศิริชัย                                                ',  'ลาภพณิชพูลผล                                           ',  'ฌพ 8853                  ',  'MR053ZEE206112958        ',  '645.21',  '600.00', 

8/1/2015  17:3 >> Application_Name >> SyncManager.addDataSyncPolicy - ERROR
System.ArgumentException: Column 'spol_issuedate' does not belong to table Table.
   at System.Data.DataRow.GetDataColumn(String columnName)
   at System.Data.DataRow.get_Item(String columnName)
   at SyncManager.addDataSyncPolicy(DataSet dsData, String strLogin) in d:\WebApps\InstallmentPayment\App_Code\BL\SyncManager.cs:line 126

8/1/2015  17:3 >> Application_Name >> SyncManager.addDataSyncPolicy - SQL
INSERT INTO sync_policy ( spol_id, spol_type, spol_policy, spol_agentcode, spol_branch, spol_effectivefromdate      ,spol_effectivetodate, spol_grosspremium, spol_netpremium, spol_custpre, spol_custfirstname      ,spol_custlastname, spol_custaddr1, spol_custaddr2, spol_custzip, spol_custphoneno      ,spol_receivedate, spol_remark1, spol_remark2, spol_remark3, spol_remark4      ,spol_remark5, spol_compolicy, spol_comfirstname, spol_comlastname, spol_comlicense      ,spol_comchasis, spol_comgrosspremium, spol_comnetpremium, spol_issuedate, spol_settlementdate      ,spol_status, sync_id, sync_datetime, insert_date, insert_login)  VALUES (  '1501000000001',  'V',  '5810001063   ',  '100005  ',  '100',  '2/1/1472 12:00:00 AM',  '',  '7220.36',  '6721.00',  '0 ',  'ศิริชัย                                                ',  'ลาภพณิชพูลผล                                           ',  '32/13  ม.2  ต.บางคูรัด                            ',  'อ.บางบัวทอง จ.นนทบุรี                             ',  '01/06/30',  '0898015242 0898015242                             ',  '12/1/1471 12:00:00 AM',  'ฌพ-8853 กท               ',  'MR053ZEE206112958        ',  '',  '',  '',  '580010000000041        ',  'ศิริชัย                                                ',  'ลาภพณิชพูลผล                                           ',  'ฌพ 8853                  ',  'MR053ZEE206112958        ',  '645.21',  '600.00', 

8/1/2015  17:4 >> Application_Name >> SyncManager.addDataSyncPolicy - ERROR
System.ArgumentException: Column 'spol_issuedate' does not belong to table Table.
   at System.Data.DataRow.GetDataColumn(String columnName)
   at System.Data.DataRow.get_Item(String columnName)
   at SyncManager.addDataSyncPolicy(DataSet dsData, String strLogin) in d:\WebApps\InstallmentPayment\App_Code\BL\SyncManager.cs:line 126

8/1/2015  17:4 >> Application_Name >> SyncManager.addDataSyncPolicy - SQL
INSERT INTO sync_policy ( spol_id, spol_type, spol_policy, spol_agentcode, spol_branch, spol_effectivefromdate      ,spol_effectivetodate, spol_grosspremium, spol_netpremium, spol_custpre, spol_custfirstname      ,spol_custlastname, spol_custaddr1, spol_custaddr2, spol_custzip, spol_custphoneno      ,spol_receivedate, spol_remark1, spol_remark2, spol_remark3, spol_remark4      ,spol_remark5, spol_compolicy, spol_comfirstname, spol_comlastname, spol_comlicense      ,spol_comchasis, spol_comgrosspremium, spol_comnetpremium, spol_issuedate, spol_settlementdate      ,spol_status, sync_id, sync_datetime, insert_date, insert_login)  VALUES (  '1501000000001',  'V',  '5810001063   ',  '100005  ',  '100',  '2/1/1472 12:00:00 AM',  '',  '7220.36',  '6721.00',  '0 ',  'ศิริชัย                                                ',  'ลาภพณิชพูลผล                                           ',  '32/13  ม.2  ต.บางคูรัด                            ',  'อ.บางบัวทอง จ.นนทบุรี                             ',  '01/06/30',  '0898015242 0898015242                             ',  '12/1/1471 12:00:00 AM',  'ฌพ-8853 กท               ',  'MR053ZEE206112958        ',  '',  '',  '',  '580010000000041        ',  'ศิริชัย                                                ',  'ลาภพณิชพูลผล                                           ',  'ฌพ 8853                  ',  'MR053ZEE206112958        ',  '645.21',  '600.00', 

8/1/2015  17:5 >> Application_Name >> SyncManager.addDataSyncPolicy - ERROR
System.Data.SqlClient.SqlException: String or binary data would be truncated.
The statement has been terminated.
   at TDS.BL.BLWorker_MSSQL.executeUpdate(String cmdString, SqlConnection Cnn, SqlTransaction cnnTransaction) in D:\WebApps\TDSLib\BL\BLWorker_MSSQL.cs:line 228
   at SyncManager.addDataSyncPolicy(DataSet dsData, String strLogin) in d:\WebApps\InstallmentPayment\App_Code\BL\SyncManager.cs:line 135

8/1/2015  17:5 >> Application_Name >> SyncManager.addDataSyncPolicy - SQL
INSERT INTO sync_policy ( spol_id, spol_type, spol_policy, spol_agentcode, spol_branch, spol_effectivefromdate      ,spol_effectivetodate, spol_grosspremium, spol_netpremium, spol_custpre, spol_custfirstname      ,spol_custlastname, spol_custaddr1, spol_custaddr2, spol_custzip, spol_custphoneno      ,spol_receivedate, spol_remark1, spol_remark2, spol_remark3, spol_remark4      ,spol_remark5, spol_compolicy, spol_comfirstname, spol_comlastname, spol_comlicense      ,spol_comchasis, spol_comgrosspremium, spol_comnetpremium, spol_issuedate, spol_settlementdate      ,spol_status, sync_id, sync_datetime, insert_date, insert_login)  VALUES (  '1501000000001',  'V',  '5810001063   ',  '100005  ',  '100',  '2/1/1472 12:00:00 AM',  '',  '7220.36',  '6721.00',  '0 ',  'ศิริชัย                                                ',  'ลาภพณิชพูลผล                                           ',  '32/13  ม.2  ต.บางคูรัด                            ',  'อ.บางบัวทอง จ.นนทบุรี                             ',  '01/06/30',  '0898015242 0898015242                             ',  '12/1/1471 12:00:00 AM',  'ฌพ-8853 กท               ',  'MR053ZEE206112958        ',  '',  '',  '',  '580010000000041        ',  'ศิริชัย                                                ',  'ลาภพณิชพูลผล                                           ',  'ฌพ 8853                  ',  'MR053ZEE206112958        ',  '645.21',  '600.00',  '1/8/2015 12:00:00 AM',  null,  '',  '150100001',  '2015/01/08 17:05:18',  getdate(),  'somza'  ) 

8/1/2015  17:8 >> Application_Name >> SyncManager.addDataSyncPolicy - ERROR
System.IndexOutOfRangeException: Index was outside the bounds of the array.
   at TDS.Utility.DateUtil.convertDateStringForDB(String engDate) in D:\WebApps\TDSLib\Utility\DateUtil.cs:line 51
   at SyncManager.addDataSyncPolicy(DataSet dsData, String strLogin) in d:\WebApps\InstallmentPayment\App_Code\BL\SyncManager.cs:line 103

8/1/2015  17:8 >> Application_Name >> SyncManager.addDataSyncPolicy - SQL
INSERT INTO sync_policy ( spol_id, spol_type, spol_policy, spol_agentcode, spol_branch, spol_effectivefromdate      ,spol_effectivetodate, spol_grosspremium, spol_netpremium, spol_custpre, spol_custfirstname      ,spol_custlastname, spol_custaddr1, spol_custaddr2, spol_custzip, spol_custphoneno      ,spol_receivedate, spol_remark1, spol_remark2, spol_remark3, spol_remark4      ,spol_remark5, spol_compolicy, spol_comfirstname, spol_comlastname, spol_comlicense      ,spol_comchasis, spol_comgrosspremium, spol_comnetpremium, spol_issuedate, spol_settlementdate      ,spol_status, sync_id, sync_datetime, insert_date, insert_login)  VALUES (  '1501000000001',  'V',  '5810001063   ',  '100005  ',  '100',  '1472/02/01', 

8/1/2015  17:10 >> Application_Name >> SyncManager.addDataSyncPolicy - ERROR
System.Data.SqlClient.SqlException: The conversion of a varchar data type to a datetime data type resulted in an out-of-range value.
The statement has been terminated.
   at TDS.BL.BLWorker_MSSQL.executeUpdate(String cmdString, SqlConnection Cnn, SqlTransaction cnnTransaction) in D:\WebApps\TDSLib\BL\BLWorker_MSSQL.cs:line 228
   at SyncManager.addDataSyncPolicy(DataSet dsData, String strLogin) in d:\WebApps\InstallmentPayment\App_Code\BL\SyncManager.cs:line 138

8/1/2015  17:10 >> Application_Name >> SyncManager.addDataSyncPolicy - SQL
INSERT INTO sync_policy ( spol_id, spol_type, spol_policy, spol_agentcode, spol_branch, spol_effectivefromdate      ,spol_effectivetodate, spol_grosspremium, spol_netpremium, spol_custpre, spol_custfirstname      ,spol_custlastname, spol_custaddr1, spol_custaddr2, spol_custzip, spol_custphoneno      ,spol_receivedate, spol_remark1, spol_remark2, spol_remark3, spol_remark4      ,spol_remark5, spol_compolicy, spol_comfirstname, spol_comlastname, spol_comlicense      ,spol_comchasis, spol_comgrosspremium, spol_comnetpremium, spol_issuedate, spol_settlementdate      ,spol_status, sync_id, sync_datetime, insert_date, insert_login)  VALUES (  '1501000000001',  'V',  '5810001063   ',  '100005  ',  '100',  '1472/02/01',  null,  '7220.36',  '6721.00',  '0 ',  'ศิริชัย                                                ',  'ลาภพณิชพูลผล                                           ',  '32/13  ม.2  ต.บางคูรัด                            ',  'อ.บางบัวทอง จ.นนทบุรี                             ',  '01/06/30',  '0898015242 0898015242                             ',  '12/1/1471 12:00:00 AM',  'ฌพ-8853 กท               ',  'MR053ZEE206112958        ',  '',  '',  '',  '580010000000041        ',  'ศิริชัย                                                ',  'ลาภพณิชพูลผล                                           ',  'ฌพ 8853                  ',  'MR053ZEE206112958        ',  '645.21',  '600.00',  '2015/01/08',  null,  '',  '150100001',  '2015/01/08 17:10:44',  getdate(),  'somza'  ) 

8/1/2015  17:24 >> Application_Name >> SyncManager.addDataSyncPolicy - ERROR
System.Data.SqlClient.SqlException: The conversion of a varchar data type to a datetime data type resulted in an out-of-range value.
The statement has been terminated.
   at TDS.BL.BLWorker_MSSQL.executeUpdate(String cmdString, SqlConnection Cnn, SqlTransaction cnnTransaction) in D:\WebApps\TDSLib\BL\BLWorker_MSSQL.cs:line 228
   at SyncManager.addDataSyncPolicy(DataSet dsData, String strLogin) in d:\WebApps\InstallmentPayment\App_Code\BL\SyncManager.cs:line 138

8/1/2015  17:24 >> Application_Name >> SyncManager.addDataSyncPolicy - SQL
INSERT INTO sync_policy ( spol_id, spol_type, spol_policy, spol_agentcode, spol_branch, spol_effectivefromdate      ,spol_effectivetodate, spol_grosspremium, spol_netpremium, spol_custpre, spol_custfirstname      ,spol_custlastname, spol_custaddr1, spol_custaddr2, spol_custzip, spol_custphoneno      ,spol_receivedate, spol_remark1, spol_remark2, spol_remark3, spol_remark4      ,spol_remark5, spol_compolicy, spol_comfirstname, spol_comlastname, spol_comlicense      ,spol_comchasis, spol_comgrosspremium, spol_comnetpremium, spol_issuedate, spol_settlementdate      ,spol_status, sync_id, sync_datetime, insert_date, insert_login)  VALUES (  '1501000000002',  'V',  '5810001834   ',  '100005  ',  '100',  '1473/07/06',  null,  '16390.26',  '15256.00',  '0 ',  'กนกวรรณ                                                ',  'ภาครัตณี                                               ',  '17/5 ม.1 ถ.ตรังกันตัง ต.ควนธานี                   ',  'อ.กันตัง จ.ตรัง                                   ',  '08/03/52',  '0993180655 0904538676                             ',  '1471/12/09',  'กง-944 อน                ',  'MMTJNKA40DD003859        ',  '',  '',  '',  '580010000000072        ',  'กนกวรรณ                                                ',  'ภาครัตณี                                               ',  'กง 944                   ',  'MMTJNKA40DD003859        ',  '645.21',  '600.00',  '2015/01/08',  null,  '',  '150100001',  '2015/01/08 17:24:11',  getdate(),  'somza'  ) 

8/1/2015  17:24 >> Application_Name >> SyncManager.addDataSyncPolicy - ERROR
System.Data.SqlClient.SqlException: The conversion of a varchar data type to a datetime data type resulted in an out-of-range value.
The statement has been terminated.
   at TDS.BL.BLWorker_MSSQL.executeUpdate(String cmdString, SqlConnection Cnn, SqlTransaction cnnTransaction) in D:\WebApps\TDSLib\BL\BLWorker_MSSQL.cs:line 228
   at SyncManager.addDataSyncPolicy(DataSet dsData, String strLogin) in d:\WebApps\InstallmentPayment\App_Code\BL\SyncManager.cs:line 138

8/1/2015  17:24 >> Application_Name >> SyncManager.addDataSyncPolicy - SQL
INSERT INTO sync_policy ( spol_id, spol_type, spol_policy, spol_agentcode, spol_branch, spol_effectivefromdate      ,spol_effectivetodate, spol_grosspremium, spol_netpremium, spol_custpre, spol_custfirstname      ,spol_custlastname, spol_custaddr1, spol_custaddr2, spol_custzip, spol_custphoneno      ,spol_receivedate, spol_remark1, spol_remark2, spol_remark3, spol_remark4      ,spol_remark5, spol_compolicy, spol_comfirstname, spol_comlastname, spol_comlicense      ,spol_comchasis, spol_comgrosspremium, spol_comnetpremium, spol_issuedate, spol_settlementdate      ,spol_status, sync_id, sync_datetime, insert_date, insert_login)  VALUES (  '1501000000002',  'V',  '5810001834   ',  '100005  ',  '100',  '1473/07/06',  null,  '16390.26',  '15256.00',  '0 ',  'กนกวรรณ                                                ',  'ภาครัตณี                                               ',  '17/5 ม.1 ถ.ตรังกันตัง ต.ควนธานี                   ',  'อ.กันตัง จ.ตรัง                                   ',  '08/03/52',  '0993180655 0904538676                             ',  '1471/12/09',  'กง-944 อน                ',  'MMTJNKA40DD003859        ',  '',  '',  '',  '580010000000072        ',  'กนกวรรณ                                                ',  'ภาครัตณี                                               ',  'กง 944                   ',  'MMTJNKA40DD003859        ',  '645.21',  '600.00',  '2015/01/08',  null,  '',  '150100001',  '2015/01/08 17:24:52',  getdate(),  'somza'  ) 

8/1/2015  17:24 >> Application_Name >> SyncManager.addDataSyncPolicy - ERROR
System.Data.SqlClient.SqlException: The conversion of a varchar data type to a datetime data type resulted in an out-of-range value.
The statement has been terminated.
   at TDS.BL.BLWorker_MSSQL.executeUpdate(String cmdString, SqlConnection Cnn, SqlTransaction cnnTransaction) in D:\WebApps\TDSLib\BL\BLWorker_MSSQL.cs:line 228
   at SyncManager.addDataSyncPolicy(DataSet dsData, String strLogin) in d:\WebApps\InstallmentPayment\App_Code\BL\SyncManager.cs:line 138

8/1/2015  17:24 >> Application_Name >> SyncManager.addDataSyncPolicy - SQL
INSERT INTO sync_policy ( spol_id, spol_type, spol_policy, spol_agentcode, spol_branch, spol_effectivefromdate      ,spol_effectivetodate, spol_grosspremium, spol_netpremium, spol_custpre, spol_custfirstname      ,spol_custlastname, spol_custaddr1, spol_custaddr2, spol_custzip, spol_custphoneno      ,spol_receivedate, spol_remark1, spol_remark2, spol_remark3, spol_remark4      ,spol_remark5, spol_compolicy, spol_comfirstname, spol_comlastname, spol_comlicense      ,spol_comchasis, spol_comgrosspremium, spol_comnetpremium, spol_issuedate, spol_settlementdate      ,spol_status, sync_id, sync_datetime, insert_date, insert_login)  VALUES (  '1501000000002',  'V',  '5810001834   ',  '100005  ',  '100',  '1473/07/06',  null,  '16390.26',  '15256.00',  '0 ',  'กนกวรรณ                                                ',  'ภาครัตณี                                               ',  '17/5 ม.1 ถ.ตรังกันตัง ต.ควนธานี                   ',  'อ.กันตัง จ.ตรัง                                   ',  '08/03/52',  '0993180655 0904538676                             ',  '1471/12/09',  'กง-944 อน                ',  'MMTJNKA40DD003859        ',  '',  '',  '',  '580010000000072        ',  'กนกวรรณ                                                ',  'ภาครัตณี                                               ',  'กง 944                   ',  'MMTJNKA40DD003859        ',  '645.21',  '600.00',  '2015/01/08',  null,  '',  '150100001',  '2015/01/08 17:24:58',  getdate(),  'somza'  ) 

8/1/2015  17:25 >> Application_Name >> SyncManager.addDataSyncPolicy - ERROR
System.Data.SqlClient.SqlException: The conversion of a varchar data type to a datetime data type resulted in an out-of-range value.
The statement has been terminated.
   at TDS.BL.BLWorker_MSSQL.executeUpdate(String cmdString, SqlConnection Cnn, SqlTransaction cnnTransaction) in D:\WebApps\TDSLib\BL\BLWorker_MSSQL.cs:line 228
   at SyncManager.addDataSyncPolicy(DataSet dsData, String strLogin) in d:\WebApps\InstallmentPayment\App_Code\BL\SyncManager.cs:line 138

8/1/2015  17:25 >> Application_Name >> SyncManager.addDataSyncPolicy - SQL
INSERT INTO sync_policy ( spol_id, spol_type, spol_policy, spol_agentcode, spol_branch, spol_effectivefromdate      ,spol_effectivetodate, spol_grosspremium, spol_netpremium, spol_custpre, spol_custfirstname      ,spol_custlastname, spol_custaddr1, spol_custaddr2, spol_custzip, spol_custphoneno      ,spol_receivedate, spol_remark1, spol_remark2, spol_remark3, spol_remark4      ,spol_remark5, spol_compolicy, spol_comfirstname, spol_comlastname, spol_comlicense      ,spol_comchasis, spol_comgrosspremium, spol_comnetpremium, spol_issuedate, spol_settlementdate      ,spol_status, sync_id, sync_datetime, insert_date, insert_login)  VALUES (  '1501000000002',  'V',  '5810001834   ',  '100005  ',  '100',  '1474/12/31',  null,  '16390.26',  '15256.00',  '0 ',  'กนกวรรณ                                                ',  'ภาครัตณี                                               ',  '17/5 ม.1 ถ.ตรังกันตัง ต.ควนธานี                   ',  'อ.กันตัง จ.ตรัง                                   ',  '08/03/52',  '0993180655 0904538676                             ',  '1471/12/09',  'กง-944 อน                ',  'MMTJNKA40DD003859        ',  '',  '',  '',  '580010000000072        ',  'กนกวรรณ                                                ',  'ภาครัตณี                                               ',  'กง 944                   ',  'MMTJNKA40DD003859        ',  '645.21',  '600.00',  '2015/01/08',  null,  '',  '150100001',  '2015/01/08 17:25:17',  getdate(),  'somza'  ) 

8/1/2015  17:27 >> Application_Name >> SyncManager.addDataSyncPolicy - ERROR
System.Data.SqlClient.SqlException: The conversion of a varchar data type to a datetime data type resulted in an out-of-range value.
The statement has been terminated.
   at TDS.BL.BLWorker_MSSQL.executeUpdate(String cmdString, SqlConnection Cnn, SqlTransaction cnnTransaction) in D:\WebApps\TDSLib\BL\BLWorker_MSSQL.cs:line 228
   at SyncManager.addDataSyncPolicy(DataSet dsData, String strLogin) in d:\WebApps\InstallmentPayment\App_Code\BL\SyncManager.cs:line 138

8/1/2015  17:27 >> Application_Name >> SyncManager.addDataSyncPolicy - SQL
INSERT INTO sync_policy ( spol_id, spol_type, spol_policy, spol_agentcode, spol_branch, spol_effectivefromdate      ,spol_effectivetodate, spol_grosspremium, spol_netpremium, spol_custpre, spol_custfirstname      ,spol_custlastname, spol_custaddr1, spol_custaddr2, spol_custzip, spol_custphoneno      ,spol_receivedate, spol_remark1, spol_remark2, spol_remark3, spol_remark4      ,spol_remark5, spol_compolicy, spol_comfirstname, spol_comlastname, spol_comlicense      ,spol_comchasis, spol_comgrosspremium, spol_comnetpremium, spol_issuedate, spol_settlementdate      ,spol_status, sync_id, sync_datetime, insert_date, insert_login)  VALUES (  '1501000000002',  'V',  '5810001834   ',  '100005  ',  '100',  '2014/01/30',  null,  '16390.26',  '15256.00',  '0 ',  'กนกวรรณ                                                ',  'ภาครัตณี                                               ',  '17/5 ม.1 ถ.ตรังกันตัง ต.ควนธานี                   ',  'อ.กันตัง จ.ตรัง                                   ',  '08/03/52',  '0993180655 0904538676                             ',  '1471/12/09',  'กง-944 อน                ',  'MMTJNKA40DD003859        ',  '',  '',  '',  '580010000000072        ',  'กนกวรรณ                                                ',  'ภาครัตณี                                               ',  'กง 944                   ',  'MMTJNKA40DD003859        ',  '645.21',  '600.00',  '2015/01/08',  null,  '',  '150100001',  '2015/01/08 17:27:33',  getdate(),  'somza'  ) 

8/1/2015  17:29 >> Application_Name >> SyncManager.addDataSyncPolicy - ERROR
System.Data.SqlClient.SqlException: Error converting data type varchar to numeric.
   at TDS.BL.BLWorker_MSSQL.executeUpdate(String cmdString, SqlConnection Cnn, SqlTransaction cnnTransaction) in D:\WebApps\TDSLib\BL\BLWorker_MSSQL.cs:line 228
   at SyncManager.addDataSyncPolicy(DataSet dsData, String strLogin) in d:\WebApps\InstallmentPayment\App_Code\BL\SyncManager.cs:line 138

8/1/2015  17:29 >> Application_Name >> SyncManager.addDataSyncPolicy - SQL
INSERT INTO sync_policy ( spol_id, spol_type, spol_policy, spol_agentcode, spol_branch, spol_effectivefromdate      ,spol_effectivetodate, spol_grosspremium, spol_netpremium, spol_custpre, spol_custfirstname      ,spol_custlastname, spol_custaddr1, spol_custaddr2, spol_custzip, spol_custphoneno      ,spol_receivedate, spol_remark1, spol_remark2, spol_remark3, spol_remark4      ,spol_remark5, spol_compolicy, spol_comfirstname, spol_comlastname, spol_comlicense      ,spol_comchasis, spol_comgrosspremium, spol_comnetpremium, spol_issuedate, spol_settlementdate      ,spol_status, sync_id, sync_datetime, insert_date, insert_login)  VALUES (  '1501000000005',  'V',  '5810002091   ',  '100005  ',  '100',  '2014/02/02',  null,  '21084.35',  '19626.00',  '0 ',  'สรายุทธ์                                               ',  'ธนิกุล                                                 ',  '143 หมู่ 1                                        ',  'ต.ดอนไก่ดี อ.กระทุ่มแบน จ.สมุทรสาคร               ',  '26/11/02',  ' 0853501845ลค                                     ',  '2014/12/10',  'ฆง-4556 กท               ',  'MRHGM2620BP254091        ',  '',  '',  '',  '',  '',  '',  '',  '',  '',  '',  '2015/01/08',  null,  '',  '150100001',  '2015/01/08 17:29:15',  getdate(),  'somza'  ) 

8/1/2015  17:36 >> Application_Name >> SyncManager.addDataSyncPolicy - ERROR
System.IndexOutOfRangeException: Index was outside the bounds of the array.
   at TDS.Utility.DateUtil.convertDateStringForDB(String engDate) in D:\WebApps\TDSLib\Utility\DateUtil.cs:line 51
   at SyncManager.addDataSyncPolicy(DataSet dsData, String strLogin) in d:\WebApps\InstallmentPayment\App_Code\BL\SyncManager.cs:line 116

8/1/2015  17:36 >> Application_Name >> SyncManager.addDataSyncPolicy - SQL
INSERT INTO sync_policy ( spol_id, spol_type, spol_policy, spol_agentcode, spol_branch, spol_effectivefromdate      ,spol_effectivetodate, spol_grosspremium, spol_netpremium, spol_custpre, spol_custfirstname      ,spol_custlastname, spol_custaddr1, spol_custaddr2, spol_custzip, spol_custphoneno      ,spol_receivedate, spol_remark1, spol_remark2, spol_remark3, spol_remark4      ,spol_remark5, spol_compolicy, spol_comfirstname, spol_comlastname, spol_comlicense      ,spol_comchasis, spol_comgrosspremium, spol_comnetpremium, spol_issuedate, spol_settlementdate      ,spol_status, sync_id, sync_datetime, insert_date, insert_login)  VALUES (  '1501000000012',  'N',  '100555001023915',  '100 ',  '100',  '1969/09/11',  '1974/09/11',  '328857.01',  '306118.00',  '',  'นิติบุคคลอาคารชุด บ้านเอิ้ออาทร ลาดกระบัง',  'นิติบุคคลอาคารชุด บ้านเอิ้ออาทร ลาดกระบัง',  '718 ถนนหลวงแพ่ง แขวงทับยาว',  '',  '     ',  '', 

