12/11/2014  17:4 >> Application_Name >> ERROR ON MasterData.editDataUser()
System.Data.SqlClient.SqlException: Invalid object name 'UserInfo'.
   at TDS.BL.BLWorker_MSSQL.executeUpdate(String cmdString, SqlConnection Cnn, SqlTransaction cnnTransaction) in D:\WebApps\TDSLib\BL\BLWorker_MSSQL.cs:line 228
   at MasterDataManager.editDataUser(DataSet ds, DataSet dsAuth) in d:\WebApps\InstallmentPayment\App_Code\BL\MasterDataManager.cs:line 720

12/11/2014  17:4 >> Application_Name >> ERROR ON MasterData.editDataUser()
DELETE FROM UserInfo WHERE userid = 'somza' 

12/11/2014  17:16 >> Application_Name >> ERROR ON MasterData.editDataUser()
System.Data.SqlClient.SqlException: Invalid object name 'UserInfo'.
   at TDS.BL.BLWorker_MSSQL.executeUpdate(String cmdString, SqlConnection Cnn, SqlTransaction cnnTransaction) in D:\WebApps\TDSLib\BL\BLWorker_MSSQL.cs:line 228
   at MasterDataManager.editDataUser(DataSet ds, DataSet dsAuth) in d:\WebApps\InstallmentPayment\App_Code\BL\MasterDataManager.cs:line 720

12/11/2014  17:16 >> Application_Name >> ERROR ON MasterData.editDataUser()
DELETE FROM UserInfo WHERE userid = 'somza' 

